id,name,model_id/id,group_id/id,perm_read,perm_write,perm_create,perm_unlink
election_access_right_user,election_access_right_user,model_election,base.group_user,1,1,1,1
access_election_config_type,access_election_config_type,model_election_config_type,base.group_user,1,1,1,1
access_election_config_location,access_election_config_location,model_election_config_location,base.group_user,1,1,1,1
access_election_config_city,access_election_config_city,model_election_config_city,base.group_user,1,1,1,1
access_election_config_room,access_election_config_room,model_election_config_room,base.group_user,1,1,1,1
access_election_config_country,access_election_config_country,model_election_config_country,base.group_user,1,1,1,1